%YAML 1.1
%TAG !u! tag:unity3d.com,2011:
--- !u!114 &11400000
MonoBehaviour:
  m_ObjectHideFlags: 0
  m_CorrespondingSourceObject: {fileID: 0}
  m_PrefabInstance: {fileID: 0}
  m_PrefabAsset: {fileID: 0}
  m_GameObject: {fileID: 0}
  m_Enabled: 1
  m_EditorHideFlags: 0
  m_Script: {fileID: 11500000, guid: 0ab2d83ea4952da45be9cb6d11ed1d22, type: 3}
  m_Name: Pistola
  m_EditorClassIdentifier: 
  gunName: Pistola
  maximoCount: 14
  actualAmmo: 14
  reloadTime: 1
  damage: 25
  fireRate: 0
  range: 20
  recoil: {x: 10, y: 8}
  offSet: {x: 0.484, y: -1.59, z: 0.96}
  automatic: 0
  sonidoDisparo: {fileID: 0}
